-target:library
-out:"Library/Bee/artifacts/2400b0aE.dag/Assembly-CSharp.dll"
-refout:"Library/Bee/artifacts/2400b0aE.dag/Assembly-CSharp.ref.dll"
-define:UNITY_2021_3_18
-define:UNITY_2021_3
-define:UNITY_2021
-define:UNITY_5_3_OR_NEWER
-define:UNITY_5_4_OR_NEWER
-define:UNITY_5_5_OR_NEWER
-define:UNITY_5_6_OR_NEWER
-define:UNITY_2017_1_OR_NEWER
-define:UNITY_2017_2_OR_NEWER
-define:UNITY_2017_3_OR_NEWER
-define:UNITY_2017_4_OR_NEWER
-define:UNITY_2018_1_OR_NEWER
-define:UNITY_2018_2_OR_NEWER
-define:UNITY_2018_3_OR_NEWER
-define:UNITY_2018_4_OR_NEWER
-define:UNITY_2019_1_OR_NEWER
-define:UNITY_2019_2_OR_NEWER
-define:UNITY_2019_3_OR_NEWER
-define:UNITY_2019_4_OR_NEWER
-define:UNITY_2020_1_OR_NEWER
-define:UNITY_2020_2_OR_NEWER
-define:UNITY_2020_3_OR_NEWER
-define:UNITY_2021_1_OR_NEWER
-define:UNITY_2021_2_OR_NEWER
-define:UNITY_2021_3_OR_NEWER
-define:PLATFORM_ARCH_64
-define:UNITY_64
-define:UNITY_INCLUDE_TESTS
-define:ENABLE_AUDIO
-define:ENABLE_CACHING
-define:ENABLE_CLOTH
-define:ENABLE_MICROPHONE
-define:ENABLE_MULTIPLE_DISPLAYS
-define:ENABLE_PHYSICS
-define:ENABLE_TEXTURE_STREAMING
-define:ENABLE_VIRTUALTEXTURING
-define:ENABLE_UNET
-define:ENABLE_LZMA
-define:ENABLE_UNITYEVENTS
-define:ENABLE_VR
-define:ENABLE_WEBCAM
-define:ENABLE_UNITYWEBREQUEST
-define:ENABLE_WWW
-define:ENABLE_CLOUD_SERVICES
-define:ENABLE_CLOUD_SERVICES_COLLAB
-define:ENABLE_CLOUD_SERVICES_COLLAB_SOFTLOCKS
-define:ENABLE_CLOUD_SERVICES_ADS
-define:ENABLE_CLOUD_SERVICES_USE_WEBREQUEST
-define:ENABLE_CLOUD_SERVICES_CRASH_REPORTING
-define:ENABLE_CLOUD_SERVICES_PURCHASING
-define:ENABLE_CLOUD_SERVICES_ANALYTICS
-define:ENABLE_CLOUD_SERVICES_UNET
-define:ENABLE_CLOUD_SERVICES_BUILD
-define:ENABLE_CLOUD_LICENSE
-define:ENABLE_EDITOR_HUB_LICENSE
-define:ENABLE_WEBSOCKET_CLIENT
-define:ENABLE_DIRECTOR_AUDIO
-define:ENABLE_DIRECTOR_TEXTURE
-define:ENABLE_MANAGED_JOBS
-define:ENABLE_MANAGED_TRANSFORM_JOBS
-define:ENABLE_MANAGED_ANIMATION_JOBS
-define:ENABLE_MANAGED_AUDIO_JOBS
-define:ENABLE_MANAGED_UNITYTLS
-define:INCLUDE_DYNAMIC_GI
-define:ENABLE_SCRIPTING_GC_WBARRIERS
-define:PLATFORM_SUPPORTS_MONO
-define:RENDER_SOFTWARE_CURSOR
-define:ENABLE_VIDEO
-define:ENABLE_ACCELERATOR_CLIENT_DEBUGGING
-define:PLATFORM_STANDALONE
-define:TEXTCORE_1_0_OR_NEWER
-define:PLATFORM_STANDALONE_LINUX
-define:UNITY_STANDALONE_LINUX
-define:UNITY_STANDALONE
-define:UNITY_STANDALONE_LINUX_API
-define:ENABLE_RUNTIME_GI
-define:ENABLE_MOVIES
-define:ENABLE_NETWORK
-define:ENABLE_CRUNCH_TEXTURE_COMPRESSION
-define:ENABLE_UNITY_GAME_SERVICES_ANALYTICS_SUPPORT
-define:ENABLE_CLUSTER_SYNC
-define:ENABLE_CLUSTERINPUT
-define:ENABLE_SPATIALTRACKING
-define:ENABLE_MODULAR_UNITYENGINE_ASSEMBLIES
-define:ENABLE_WEBSOCKET_HOST
-define:ENABLE_MONO
-define:NET_STANDARD_2_0
-define:NET_STANDARD
-define:NET_STANDARD_2_1
-define:NETSTANDARD
-define:NETSTANDARD2_1
-define:ENABLE_PROFILER
-define:DEBUG
-define:TRACE
-define:UNITY_ASSERTIONS
-define:UNITY_EDITOR
-define:UNITY_EDITOR_64
-define:UNITY_EDITOR_LINUX
-define:ENABLE_UNITY_COLLECTIONS_CHECKS
-define:ENABLE_BURST_AOT
-define:UNITY_TEAM_LICENSE
-define:ENABLE_CUSTOM_RENDER_TEXTURE
-define:ENABLE_DIRECTOR
-define:ENABLE_LOCALIZATION
-define:ENABLE_SPRITES
-define:ENABLE_TERRAIN
-define:ENABLE_TILEMAP
-define:ENABLE_TIMELINE
-define:ENABLE_LEGACY_INPUT_MANAGER
-define:TEXTCORE_FONT_ENGINE_1_5_OR_NEWER
-define:CSHARP_7_OR_LATER
-define:CSHARP_7_3_OR_NEWER
-r:"/home/admin/Husky-Simulation/WartySimulation-TCP/Library/PackageCache/com.unity.burst@1.6.6/Unity.Burst.CodeGen/Unity.Burst.Cecil.Mdb.dll"
-r:"/home/admin/Husky-Simulation/WartySimulation-TCP/Library/PackageCache/com.unity.burst@1.6.6/Unity.Burst.CodeGen/Unity.Burst.Cecil.Pdb.dll"
-r:"/home/admin/Husky-Simulation/WartySimulation-TCP/Library/PackageCache/com.unity.burst@1.6.6/Unity.Burst.CodeGen/Unity.Burst.Cecil.Rocks.dll"
-r:"/home/admin/Husky-Simulation/WartySimulation-TCP/Library/PackageCache/com.unity.burst@1.6.6/Unity.Burst.CodeGen/Unity.Burst.Cecil.dll"
-r:"/home/admin/Husky-Simulation/WartySimulation-TCP/Library/PackageCache/com.unity.burst@1.6.6/Unity.Burst.Unsafe.dll"
-r:"/home/admin/Husky-Simulation/WartySimulation-TCP/Library/PackageCache/com.unity.robotics.urdf-importer@90f353e435/Runtime/UnityMeshImporter/Plugins/AssimpNet/AssimpNet.dll"
-r:"/home/admin/Husky-Simulation/WartySimulation-TCP/Library/PackageCache/com.unity.testtools.codecoverage@1.2.2/lib/ReportGenerator/ReportGeneratorMerged.dll"
-r:"/home/admin/Husky-Simulation/WartySimulation-TCP/Library/PackageCache/com.unity.visualscripting@1.8.0/Runtime/VisualScripting.Flow/Dependencies/NCalc/Unity.VisualScripting.Antlr3.Runtime.dll"
-r:"/home/admin/Unity/Hub/Editor/2021.3.18f1/Editor/Data/Managed/UnityEngine/UnityEditor.CoreModule.dll"
-r:"/home/admin/Unity/Hub/Editor/2021.3.18f1/Editor/Data/Managed/UnityEngine/UnityEditor.DeviceSimulatorModule.dll"
-r:"/home/admin/Unity/Hub/Editor/2021.3.18f1/Editor/Data/Managed/UnityEngine/UnityEditor.DiagnosticsModule.dll"
-r:"/home/admin/Unity/Hub/Editor/2021.3.18f1/Editor/Data/Managed/UnityEngine/UnityEditor.GraphViewModule.dll"
-r:"/home/admin/Unity/Hub/Editor/2021.3.18f1/Editor/Data/Managed/UnityEngine/UnityEditor.PackageManagerUIModule.dll"
-r:"/home/admin/Unity/Hub/Editor/2021.3.18f1/Editor/Data/Managed/UnityEngine/UnityEditor.QuickSearchModule.dll"
-r:"/home/admin/Unity/Hub/Editor/2021.3.18f1/Editor/Data/Managed/UnityEngine/UnityEditor.SceneTemplateModule.dll"
-r:"/home/admin/Unity/Hub/Editor/2021.3.18f1/Editor/Data/Managed/UnityEngine/UnityEditor.TextCoreFontEngineModule.dll"
-r:"/home/admin/Unity/Hub/Editor/2021.3.18f1/Editor/Data/Managed/UnityEngine/UnityEditor.TextCoreTextEngineModule.dll"
-r:"/home/admin/Unity/Hub/Editor/2021.3.18f1/Editor/Data/Managed/UnityEngine/UnityEditor.UIBuilderModule.dll"
-r:"/home/admin/Unity/Hub/Editor/2021.3.18f1/Editor/Data/Managed/UnityEngine/UnityEditor.UIElementsModule.dll"
-r:"/home/admin/Unity/Hub/Editor/2021.3.18f1/Editor/Data/Managed/UnityEngine/UnityEditor.UIElementsSamplesModule.dll"
-r:"/home/admin/Unity/Hub/Editor/2021.3.18f1/Editor/Data/Managed/UnityEngine/UnityEditor.UIServiceModule.dll"
-r:"/home/admin/Unity/Hub/Editor/2021.3.18f1/Editor/Data/Managed/UnityEngine/UnityEditor.UnityConnectModule.dll"
-r:"/home/admin/Unity/Hub/Editor/2021.3.18f1/Editor/Data/Managed/UnityEngine/UnityEditor.dll"
-r:"/home/admin/Unity/Hub/Editor/2021.3.18f1/Editor/Data/Managed/UnityEngine/UnityEngine.AIModule.dll"
-r:"/home/admin/Unity/Hub/Editor/2021.3.18f1/Editor/Data/Managed/UnityEngine/UnityEngine.AccessibilityModule.dll"
-r:"/home/admin/Unity/Hub/Editor/2021.3.18f1/Editor/Data/Managed/UnityEngine/UnityEngine.AndroidJNIModule.dll"
-r:"/home/admin/Unity/Hub/Editor/2021.3.18f1/Editor/Data/Managed/UnityEngine/UnityEngine.AnimationModule.dll"
-r:"/home/admin/Unity/Hub/Editor/2021.3.18f1/Editor/Data/Managed/UnityEngine/UnityEngine.AssetBundleModule.dll"
-r:"/home/admin/Unity/Hub/Editor/2021.3.18f1/Editor/Data/Managed/UnityEngine/UnityEngine.AudioModule.dll"
-r:"/home/admin/Unity/Hub/Editor/2021.3.18f1/Editor/Data/Managed/UnityEngine/UnityEngine.ClothModule.dll"
-r:"/home/admin/Unity/Hub/Editor/2021.3.18f1/Editor/Data/Managed/UnityEngine/UnityEngine.ClusterInputModule.dll"
-r:"/home/admin/Unity/Hub/Editor/2021.3.18f1/Editor/Data/Managed/UnityEngine/UnityEngine.ClusterRendererModule.dll"
-r:"/home/admin/Unity/Hub/Editor/2021.3.18f1/Editor/Data/Managed/UnityEngine/UnityEngine.CoreModule.dll"
-r:"/home/admin/Unity/Hub/Editor/2021.3.18f1/Editor/Data/Managed/UnityEngine/UnityEngine.CrashReportingModule.dll"
-r:"/home/admin/Unity/Hub/Editor/2021.3.18f1/Editor/Data/Managed/UnityEngine/UnityEngine.DSPGraphModule.dll"
-r:"/home/admin/Unity/Hub/Editor/2021.3.18f1/Editor/Data/Managed/UnityEngine/UnityEngine.DirectorModule.dll"
-r:"/home/admin/Unity/Hub/Editor/2021.3.18f1/Editor/Data/Managed/UnityEngine/UnityEngine.GIModule.dll"
-r:"/home/admin/Unity/Hub/Editor/2021.3.18f1/Editor/Data/Managed/UnityEngine/UnityEngine.GameCenterModule.dll"
-r:"/home/admin/Unity/Hub/Editor/2021.3.18f1/Editor/Data/Managed/UnityEngine/UnityEngine.GridModule.dll"
-r:"/home/admin/Unity/Hub/Editor/2021.3.18f1/Editor/Data/Managed/UnityEngine/UnityEngine.HotReloadModule.dll"
-r:"/home/admin/Unity/Hub/Editor/2021.3.18f1/Editor/Data/Managed/UnityEngine/UnityEngine.IMGUIModule.dll"
-r:"/home/admin/Unity/Hub/Editor/2021.3.18f1/Editor/Data/Managed/UnityEngine/UnityEngine.ImageConversionModule.dll"
-r:"/home/admin/Unity/Hub/Editor/2021.3.18f1/Editor/Data/Managed/UnityEngine/UnityEngine.InputLegacyModule.dll"
-r:"/home/admin/Unity/Hub/Editor/2021.3.18f1/Editor/Data/Managed/UnityEngine/UnityEngine.InputModule.dll"
-r:"/home/admin/Unity/Hub/Editor/2021.3.18f1/Editor/Data/Managed/UnityEngine/UnityEngine.JSONSerializeModule.dll"
-r:"/home/admin/Unity/Hub/Editor/2021.3.18f1/Editor/Data/Managed/UnityEngine/UnityEngine.LocalizationModule.dll"
-r:"/home/admin/Unity/Hub/Editor/2021.3.18f1/Editor/Data/Managed/UnityEngine/UnityEngine.ParticleSystemModule.dll"
-r:"/home/admin/Unity/Hub/Editor/2021.3.18f1/Editor/Data/Managed/UnityEngine/UnityEngine.PerformanceReportingModule.dll"
-r:"/home/admin/Unity/Hub/Editor/2021.3.18f1/Editor/Data/Managed/UnityEngine/UnityEngine.Physics2DModule.dll"
-r:"/home/admin/Unity/Hub/Editor/2021.3.18f1/Editor/Data/Managed/UnityEngine/UnityEngine.PhysicsModule.dll"
-r:"/home/admin/Unity/Hub/Editor/2021.3.18f1/Editor/Data/Managed/UnityEngine/UnityEngine.ProfilerModule.dll"
-r:"/home/admin/Unity/Hub/Editor/2021.3.18f1/Editor/Data/Managed/UnityEngine/UnityEngine.RuntimeInitializeOnLoadManagerInitializerModule.dll"
-r:"/home/admin/Unity/Hub/Editor/2021.3.18f1/Editor/Data/Managed/UnityEngine/UnityEngine.ScreenCaptureModule.dll"
-r:"/home/admin/Unity/Hub/Editor/2021.3.18f1/Editor/Data/Managed/UnityEngine/UnityEngine.SharedInternalsModule.dll"
-r:"/home/admin/Unity/Hub/Editor/2021.3.18f1/Editor/Data/Managed/UnityEngine/UnityEngine.SpriteMaskModule.dll"
-r:"/home/admin/Unity/Hub/Editor/2021.3.18f1/Editor/Data/Managed/UnityEngine/UnityEngine.SpriteShapeModule.dll"
-r:"/home/admin/Unity/Hub/Editor/2021.3.18f1/Editor/Data/Managed/UnityEngine/UnityEngine.StreamingModule.dll"
-r:"/home/admin/Unity/Hub/Editor/2021.3.18f1/Editor/Data/Managed/UnityEngine/UnityEngine.SubstanceModule.dll"
-r:"/home/admin/Unity/Hub/Editor/2021.3.18f1/Editor/Data/Managed/UnityEngine/UnityEngine.SubsystemsModule.dll"
-r:"/home/admin/Unity/Hub/Editor/2021.3.18f1/Editor/Data/Managed/UnityEngine/UnityEngine.TLSModule.dll"
-r:"/home/admin/Unity/Hub/Editor/2021.3.18f1/Editor/Data/Managed/UnityEngine/UnityEngine.TerrainModule.dll"
-r:"/home/admin/Unity/Hub/Editor/2021.3.18f1/Editor/Data/Managed/UnityEngine/UnityEngine.TerrainPhysicsModule.dll"
-r:"/home/admin/Unity/Hub/Editor/2021.3.18f1/Editor/Data/Managed/UnityEngine/UnityEngine.TextCoreFontEngineModule.dll"
-r:"/home/admin/Unity/Hub/Editor/2021.3.18f1/Editor/Data/Managed/UnityEngine/UnityEngine.TextCoreTextEngineModule.dll"
-r:"/home/admin/Unity/Hub/Editor/2021.3.18f1/Editor/Data/Managed/UnityEngine/UnityEngine.TextRenderingModule.dll"
-r:"/home/admin/Unity/Hub/Editor/2021.3.18f1/Editor/Data/Managed/UnityEngine/UnityEngine.TilemapModule.dll"
-r:"/home/admin/Unity/Hub/Editor/2021.3.18f1/Editor/Data/Managed/UnityEngine/UnityEngine.UIElementsModule.dll"
-r:"/home/admin/Unity/Hub/Editor/2021.3.18f1/Editor/Data/Managed/UnityEngine/UnityEngine.UIElementsNativeModule.dll"
-r:"/home/admin/Unity/Hub/Editor/2021.3.18f1/Editor/Data/Managed/UnityEngine/UnityEngine.UIModule.dll"
-r:"/home/admin/Unity/Hub/Editor/2021.3.18f1/Editor/Data/Managed/UnityEngine/UnityEngine.UNETModule.dll"
-r:"/home/admin/Unity/Hub/Editor/2021.3.18f1/Editor/Data/Managed/UnityEngine/UnityEngine.UmbraModule.dll"
-r:"/home/admin/Unity/Hub/Editor/2021.3.18f1/Editor/Data/Managed/UnityEngine/UnityEngine.UnityAnalyticsCommonModule.dll"
-r:"/home/admin/Unity/Hub/Editor/2021.3.18f1/Editor/Data/Managed/UnityEngine/UnityEngine.UnityAnalyticsModule.dll"
-r:"/home/admin/Unity/Hub/Editor/2021.3.18f1/Editor/Data/Managed/UnityEngine/UnityEngine.UnityConnectModule.dll"
-r:"/home/admin/Unity/Hub/Editor/2021.3.18f1/Editor/Data/Managed/UnityEngine/UnityEngine.UnityCurlModule.dll"
-r:"/home/admin/Unity/Hub/Editor/2021.3.18f1/Editor/Data/Managed/UnityEngine/UnityEngine.UnityTestProtocolModule.dll"
-r:"/home/admin/Unity/Hub/Editor/2021.3.18f1/Editor/Data/Managed/UnityEngine/UnityEngine.UnityWebRequestAssetBundleModule.dll"
-r:"/home/admin/Unity/Hub/Editor/2021.3.18f1/Editor/Data/Managed/UnityEngine/UnityEngine.UnityWebRequestAudioModule.dll"
-r:"/home/admin/Unity/Hub/Editor/2021.3.18f1/Editor/Data/Managed/UnityEngine/UnityEngine.UnityWebRequestModule.dll"
-r:"/home/admin/Unity/Hub/Editor/2021.3.18f1/Editor/Data/Managed/UnityEngine/UnityEngine.UnityWebRequestTextureModule.dll"
-r:"/home/admin/Unity/Hub/Editor/2021.3.18f1/Editor/Data/Managed/UnityEngine/UnityEngine.UnityWebRequestWWWModule.dll"
-r:"/home/admin/Unity/Hub/Editor/2021.3.18f1/Editor/Data/Managed/UnityEngine/UnityEngine.VFXModule.dll"
-r:"/home/admin/Unity/Hub/Editor/2021.3.18f1/Editor/Data/Managed/UnityEngine/UnityEngine.VRModule.dll"
-r:"/home/admin/Unity/Hub/Editor/2021.3.18f1/Editor/Data/Managed/UnityEngine/UnityEngine.VehiclesModule.dll"
-r:"/home/admin/Unity/Hub/Editor/2021.3.18f1/Editor/Data/Managed/UnityEngine/UnityEngine.VideoModule.dll"
-r:"/home/admin/Unity/Hub/Editor/2021.3.18f1/Editor/Data/Managed/UnityEngine/UnityEngine.VirtualTexturingModule.dll"
-r:"/home/admin/Unity/Hub/Editor/2021.3.18f1/Editor/Data/Managed/UnityEngine/UnityEngine.WindModule.dll"
-r:"/home/admin/Unity/Hub/Editor/2021.3.18f1/Editor/Data/Managed/UnityEngine/UnityEngine.XRModule.dll"
-r:"/home/admin/Unity/Hub/Editor/2021.3.18f1/Editor/Data/Managed/UnityEngine/UnityEngine.dll"
-r:"/home/admin/Unity/Hub/Editor/2021.3.18f1/Editor/Data/NetStandard/Extensions/2.0.0/System.Runtime.InteropServices.WindowsRuntime.dll"
-r:"/home/admin/Unity/Hub/Editor/2021.3.18f1/Editor/Data/NetStandard/compat/2.1.0/shims/netfx/System.ComponentModel.Composition.dll"
-r:"/home/admin/Unity/Hub/Editor/2021.3.18f1/Editor/Data/NetStandard/compat/2.1.0/shims/netfx/System.Core.dll"
-r:"/home/admin/Unity/Hub/Editor/2021.3.18f1/Editor/Data/NetStandard/compat/2.1.0/shims/netfx/System.Data.dll"
-r:"/home/admin/Unity/Hub/Editor/2021.3.18f1/Editor/Data/NetStandard/compat/2.1.0/shims/netfx/System.Drawing.dll"
-r:"/home/admin/Unity/Hub/Editor/2021.3.18f1/Editor/Data/NetStandard/compat/2.1.0/shims/netfx/System.IO.Compression.FileSystem.dll"
-r:"/home/admin/Unity/Hub/Editor/2021.3.18f1/Editor/Data/NetStandard/compat/2.1.0/shims/netfx/System.Net.dll"
-r:"/home/admin/Unity/Hub/Editor/2021.3.18f1/Editor/Data/NetStandard/compat/2.1.0/shims/netfx/System.Numerics.dll"
-r:"/home/admin/Unity/Hub/Editor/2021.3.18f1/Editor/Data/NetStandard/compat/2.1.0/shims/netfx/System.Runtime.Serialization.dll"
-r:"/home/admin/Unity/Hub/Editor/2021.3.18f1/Editor/Data/NetStandard/compat/2.1.0/shims/netfx/System.ServiceModel.Web.dll"
-r:"/home/admin/Unity/Hub/Editor/2021.3.18f1/Editor/Data/NetStandard/compat/2.1.0/shims/netfx/System.Transactions.dll"
-r:"/home/admin/Unity/Hub/Editor/2021.3.18f1/Editor/Data/NetStandard/compat/2.1.0/shims/netfx/System.Web.dll"
-r:"/home/admin/Unity/Hub/Editor/2021.3.18f1/Editor/Data/NetStandard/compat/2.1.0/shims/netfx/System.Windows.dll"
-r:"/home/admin/Unity/Hub/Editor/2021.3.18f1/Editor/Data/NetStandard/compat/2.1.0/shims/netfx/System.Xml.Linq.dll"
-r:"/home/admin/Unity/Hub/Editor/2021.3.18f1/Editor/Data/NetStandard/compat/2.1.0/shims/netfx/System.Xml.Serialization.dll"
-r:"/home/admin/Unity/Hub/Editor/2021.3.18f1/Editor/Data/NetStandard/compat/2.1.0/shims/netfx/System.Xml.dll"
-r:"/home/admin/Unity/Hub/Editor/2021.3.18f1/Editor/Data/NetStandard/compat/2.1.0/shims/netfx/System.dll"
-r:"/home/admin/Unity/Hub/Editor/2021.3.18f1/Editor/Data/NetStandard/compat/2.1.0/shims/netfx/mscorlib.dll"
-r:"/home/admin/Unity/Hub/Editor/2021.3.18f1/Editor/Data/NetStandard/compat/2.1.0/shims/netstandard/Microsoft.Win32.Primitives.dll"
-r:"/home/admin/Unity/Hub/Editor/2021.3.18f1/Editor/Data/NetStandard/compat/2.1.0/shims/netstandard/System.AppContext.dll"
-r:"/home/admin/Unity/Hub/Editor/2021.3.18f1/Editor/Data/NetStandard/compat/2.1.0/shims/netstandard/System.Buffers.dll"
-r:"/home/admin/Unity/Hub/Editor/2021.3.18f1/Editor/Data/NetStandard/compat/2.1.0/shims/netstandard/System.Collections.Concurrent.dll"
-r:"/home/admin/Unity/Hub/Editor/2021.3.18f1/Editor/Data/NetStandard/compat/2.1.0/shims/netstandard/System.Collections.NonGeneric.dll"
-r:"/home/admin/Unity/Hub/Editor/2021.3.18f1/Editor/Data/NetStandard/compat/2.1.0/shims/netstandard/System.Collections.Specialized.dll"
-r:"/home/admin/Unity/Hub/Editor/2021.3.18f1/Editor/Data/NetStandard/compat/2.1.0/shims/netstandard/System.Collections.dll"
-r:"/home/admin/Unity/Hub/Editor/2021.3.18f1/Editor/Data/NetStandard/compat/2.1.0/shims/netstandard/System.ComponentModel.EventBasedAsync.dll"
-r:"/home/admin/Unity/Hub/Editor/2021.3.18f1/Editor/Data/NetStandard/compat/2.1.0/shims/netstandard/System.ComponentModel.Primitives.dll"
-r:"/home/admin/Unity/Hub/Editor/2021.3.18f1/Editor/Data/NetStandard/compat/2.1.0/shims/netstandard/System.ComponentModel.TypeConverter.dll"
-r:"/home/admin/Unity/Hub/Editor/2021.3.18f1/Editor/Data/NetStandard/compat/2.1.0/shims/netstandard/System.ComponentModel.dll"
-r:"/home/admin/Unity/Hub/Editor/2021.3.18f1/Editor/Data/NetStandard/compat/2.1.0/shims/netstandard/System.Console.dll"
-r:"/home/admin/Unity/Hub/Editor/2021.3.18f1/Editor/Data/NetStandard/compat/2.1.0/shims/netstandard/System.Data.Common.dll"
-r:"/home/admin/Unity/Hub/Editor/2021.3.18f1/Editor/Data/NetStandard/compat/2.1.0/shims/netstandard/System.Diagnostics.Contracts.dll"
-r:"/home/admin/Unity/Hub/Editor/2021.3.18f1/Editor/Data/NetStandard/compat/2.1.0/shims/netstandard/System.Diagnostics.Debug.dll"
-r:"/home/admin/Unity/Hub/Editor/2021.3.18f1/Editor/Data/NetStandard/compat/2.1.0/shims/netstandard/System.Diagnostics.FileVersionInfo.dll"
-r:"/home/admin/Unity/Hub/Editor/2021.3.18f1/Editor/Data/NetStandard/compat/2.1.0/shims/netstandard/System.Diagnostics.Process.dll"
-r:"/home/admin/Unity/Hub/Editor/2021.3.18f1/Editor/Data/NetStandard/compat/2.1.0/shims/netstandard/System.Diagnostics.StackTrace.dll"
-r:"/home/admin/Unity/Hub/Editor/2021.3.18f1/Editor/Data/NetStandard/compat/2.1.0/shims/netstandard/System.Diagnostics.TextWriterTraceListener.dll"
-r:"/home/admin/Unity/Hub/Editor/2021.3.18f1/Editor/Data/NetStandard/compat/2.1.0/shims/netstandard/System.Diagnostics.Tools.dll"
-r:"/home/admin/Unity/Hub/Editor/2021.3.18f1/Editor/Data/NetStandard/compat/2.1.0/shims/netstandard/System.Diagnostics.TraceSource.dll"
-r:"/home/admin/Unity/Hub/Editor/2021.3.18f1/Editor/Data/NetStandard/compat/2.1.0/shims/netstandard/System.Diagnostics.Tracing.dll"
-r:"/home/admin/Unity/Hub/Editor/2021.3.18f1/Editor/Data/NetStandard/compat/2.1.0/shims/netstandard/System.Drawing.Primitives.dll"
-r:"/home/admin/Unity/Hub/Editor/2021.3.18f1/Editor/Data/NetStandard/compat/2.1.0/shims/netstandard/System.Dynamic.Runtime.dll"
-r:"/home/admin/Unity/Hub/Editor/2021.3.18f1/Editor/Data/NetStandard/compat/2.1.0/shims/netstandard/System.Globalization.Calendars.dll"
-r:"/home/admin/Unity/Hub/Editor/2021.3.18f1/Editor/Data/NetStandard/compat/2.1.0/shims/netstandard/System.Globalization.Extensions.dll"
-r:"/home/admin/Unity/Hub/Editor/2021.3.18f1/Editor/Data/NetStandard/compat/2.1.0/shims/netstandard/System.Globalization.dll"
-r:"/home/admin/Unity/Hub/Editor/2021.3.18f1/Editor/Data/NetStandard/compat/2.1.0/shims/netstandard/System.IO.Compression.ZipFile.dll"
-r:"/home/admin/Unity/Hub/Editor/2021.3.18f1/Editor/Data/NetStandard/compat/2.1.0/shims/netstandard/System.IO.Compression.dll"
-r:"/home/admin/Unity/Hub/Editor/2021.3.18f1/Editor/Data/NetStandard/compat/2.1.0/shims/netstandard/System.IO.FileSystem.DriveInfo.dll"
-r:"/home/admin/Unity/Hub/Editor/2021.3.18f1/Editor/Data/NetStandard/compat/2.1.0/shims/netstandard/System.IO.FileSystem.Primitives.dll"
-r:"/home/admin/Unity/Hub/Editor/2021.3.18f1/Editor/Data/NetStandard/compat/2.1.0/shims/netstandard/System.IO.FileSystem.Watcher.dll"
-r:"/home/admin/Unity/Hub/Editor/2021.3.18f1/Editor/Data/NetStandard/compat/2.1.0/shims/netstandard/System.IO.FileSystem.dll"
-r:"/home/admin/Unity/Hub/Editor/2021.3.18f1/Editor/Data/NetStandard/compat/2.1.0/shims/netstandard/System.IO.IsolatedStorage.dll"
-r:"/home/admin/Unity/Hub/Editor/2021.3.18f1/Editor/Data/NetStandard/compat/2.1.0/shims/netstandard/System.IO.MemoryMappedFiles.dll"
-r:"/home/admin/Unity/Hub/Editor/2021.3.18f1/Editor/Data/NetStandard/compat/2.1.0/shims/netstandard/System.IO.Pipes.dll"
-r:"/home/admin/Unity/Hub/Editor/2021.3.18f1/Editor/Data/NetStandard/compat/2.1.0/shims/netstandard/System.IO.UnmanagedMemoryStream.dll"
-r:"/home/admin/Unity/Hub/Editor/2021.3.18f1/Editor/Data/NetStandard/compat/2.1.0/shims/netstandard/System.IO.dll"
-r:"/home/admin/Unity/Hub/Editor/2021.3.18f1/Editor/Data/NetStandard/compat/2.1.0/shims/netstandard/System.Linq.Expressions.dll"
-r:"/home/admin/Unity/Hub/Editor/2021.3.18f1/Editor/Data/NetStandard/compat/2.1.0/shims/netstandard/System.Linq.Parallel.dll"
-r:"/home/admin/Unity/Hub/Editor/2021.3.18f1/Editor/Data/NetStandard/compat/2.1.0/shims/netstandard/System.Linq.Queryable.dll"
-r:"/home/admin/Unity/Hub/Editor/2021.3.18f1/Editor/Data/NetStandard/compat/2.1.0/shims/netstandard/System.Linq.dll"
-r:"/home/admin/Unity/Hub/Editor/2021.3.18f1/Editor/Data/NetStandard/compat/2.1.0/shims/netstandard/System.Memory.dll"
-r:"/home/admin/Unity/Hub/Editor/2021.3.18f1/Editor/Data/NetStandard/compat/2.1.0/shims/netstandard/System.Net.Http.dll"
-r:"/home/admin/Unity/Hub/Editor/2021.3.18f1/Editor/Data/NetStandard/compat/2.1.0/shims/netstandard/System.Net.NameResolution.dll"
-r:"/home/admin/Unity/Hub/Editor/2021.3.18f1/Editor/Data/NetStandard/compat/2.1.0/shims/netstandard/System.Net.NetworkInformation.dll"
-r:"/home/admin/Unity/Hub/Editor/2021.3.18f1/Editor/Data/NetStandard/compat/2.1.0/shims/netstandard/System.Net.Ping.dll"
-r:"/home/admin/Unity/Hub/Editor/2021.3.18f1/Editor/Data/NetStandard/compat/2.1.0/shims/netstandard/System.Net.Primitives.dll"
-r:"/home/admin/Unity/Hub/Editor/2021.3.18f1/Editor/Data/NetStandard/compat/2.1.0/shims/netstandard/System.Net.Requests.dll"
-r:"/home/admin/Unity/Hub/Editor/2021.3.18f1/Editor/Data/NetStandard/compat/2.1.0/shims/netstandard/System.Net.Security.dll"
-r:"/home/admin/Unity/Hub/Editor/2021.3.18f1/Editor/Data/NetStandard/compat/2.1.0/shims/netstandard/System.Net.Sockets.dll"
-r:"/home/admin/Unity/Hub/Editor/2021.3.18f1/Editor/Data/NetStandard/compat/2.1.0/shims/netstandard/System.Net.WebHeaderCollection.dll"
-r:"/home/admin/Unity/Hub/Editor/2021.3.18f1/Editor/Data/NetStandard/compat/2.1.0/shims/netstandard/System.Net.WebSockets.Client.dll"
-r:"/home/admin/Unity/Hub/Editor/2021.3.18f1/Editor/Data/NetStandard/compat/2.1.0/shims/netstandard/System.Net.WebSockets.dll"
-r:"/home/admin/Unity/Hub/Editor/2021.3.18f1/Editor/Data/NetStandard/compat/2.1.0/shims/netstandard/System.Numerics.Vectors.dll"
-r:"/home/admin/Unity/Hub/Editor/2021.3.18f1/Editor/Data/NetStandard/compat/2.1.0/shims/netstandard/System.ObjectModel.dll"
-r:"/home/admin/Unity/Hub/Editor/2021.3.18f1/Editor/Data/NetStandard/compat/2.1.0/shims/netstandard/System.Reflection.DispatchProxy.dll"
-r:"/home/admin/Unity/Hub/Editor/2021.3.18f1/Editor/Data/NetStandard/compat/2.1.0/shims/netstandard/System.Reflection.Emit.ILGeneration.dll"
-r:"/home/admin/Unity/Hub/Editor/2021.3.18f1/Editor/Data/NetStandard/compat/2.1.0/shims/netstandard/System.Reflection.Emit.Lightweight.dll"
-r:"/home/admin/Unity/Hub/Editor/2021.3.18f1/Editor/Data/NetStandard/compat/2.1.0/shims/netstandard/System.Reflection.Emit.dll"
-r:"/home/admin/Unity/Hub/Editor/2021.3.18f1/Editor/Data/NetStandard/compat/2.1.0/shims/netstandard/System.Reflection.Extensions.dll"
-r:"/home/admin/Unity/Hub/Editor/2021.3.18f1/Editor/Data/NetStandard/compat/2.1.0/shims/netstandard/System.Reflection.Primitives.dll"
-r:"/home/admin/Unity/Hub/Editor/2021.3.18f1/Editor/Data/NetStandard/compat/2.1.0/shims/netstandard/System.Reflection.dll"
-r:"/home/admin/Unity/Hub/Editor/2021.3.18f1/Editor/Data/NetStandard/compat/2.1.0/shims/netstandard/System.Resources.Reader.dll"
-r:"/home/admin/Unity/Hub/Editor/2021.3.18f1/Editor/Data/NetStandard/compat/2.1.0/shims/netstandard/System.Resources.ResourceManager.dll"
-r:"/home/admin/Unity/Hub/Editor/2021.3.18f1/Editor/Data/NetStandard/compat/2.1.0/shims/netstandard/System.Resources.Writer.dll"
-r:"/home/admin/Unity/Hub/Editor/2021.3.18f1/Editor/Data/NetStandard/compat/2.1.0/shims/netstandard/System.Runtime.CompilerServices.VisualC.dll"
-r:"/home/admin/Unity/Hub/Editor/2021.3.18f1/Editor/Data/NetStandard/compat/2.1.0/shims/netstandard/System.Runtime.Extensions.dll"
-r:"/home/admin/Unity/Hub/Editor/2021.3.18f1/Editor/Data/NetStandard/compat/2.1.0/shims/netstandard/System.Runtime.Handles.dll"
-r:"/home/admin/Unity/Hub/Editor/2021.3.18f1/Editor/Data/NetStandard/compat/2.1.0/shims/netstandard/System.Runtime.InteropServices.RuntimeInformation.dll"
-r:"/home/admin/Unity/Hub/Editor/2021.3.18f1/Editor/Data/NetStandard/compat/2.1.0/shims/netstandard/System.Runtime.InteropServices.dll"
-r:"/home/admin/Unity/Hub/Editor/2021.3.18f1/Editor/Data/NetStandard/compat/2.1.0/shims/netstandard/System.Runtime.Numerics.dll"
-r:"/home/admin/Unity/Hub/Editor/2021.3.18f1/Editor/Data/NetStandard/compat/2.1.0/shims/netstandard/System.Runtime.Serialization.Formatters.dll"
-r:"/home/admin/Unity/Hub/Editor/2021.3.18f1/Editor/Data/NetStandard/compat/2.1.0/shims/netstandard/System.Runtime.Serialization.Json.dll"
-r:"/home/admin/Unity/Hub/Editor/2021.3.18f1/Editor/Data/NetStandard/compat/2.1.0/shims/netstandard/System.Runtime.Serialization.Primitives.dll"
-r:"/home/admin/Unity/Hub/Editor/2021.3.18f1/Editor/Data/NetStandard/compat/2.1.0/shims/netstandard/System.Runtime.Serialization.Xml.dll"
-r:"/home/admin/Unity/Hub/Editor/2021.3.18f1/Editor/Data/NetStandard/compat/2.1.0/shims/netstandard/System.Runtime.dll"
-r:"/home/admin/Unity/Hub/Editor/2021.3.18f1/Editor/Data/NetStandard/compat/2.1.0/shims/netstandard/System.Security.Claims.dll"
-r:"/home/admin/Unity/Hub/Editor/2021.3.18f1/Editor/Data/NetStandard/compat/2.1.0/shims/netstandard/System.Security.Cryptography.Algorithms.dll"
-r:"/home/admin/Unity/Hub/Editor/2021.3.18f1/Editor/Data/NetStandard/compat/2.1.0/shims/netstandard/System.Security.Cryptography.Csp.dll"
-r:"/home/admin/Unity/Hub/Editor/2021.3.18f1/Editor/Data/NetStandard/compat/2.1.0/shims/netstandard/System.Security.Cryptography.Encoding.dll"
-r:"/home/admin/Unity/Hub/Editor/2021.3.18f1/Editor/Data/NetStandard/compat/2.1.0/shims/netstandard/System.Security.Cryptography.Primitives.dll"
-r:"/home/admin/Unity/Hub/Editor/2021.3.18f1/Editor/Data/NetStandard/compat/2.1.0/shims/netstandard/System.Security.Cryptography.X509Certificates.dll"
-r:"/home/admin/Unity/Hub/Editor/2021.3.18f1/Editor/Data/NetStandard/compat/2.1.0/shims/netstandard/System.Security.Principal.dll"
-r:"/home/admin/Unity/Hub/Editor/2021.3.18f1/Editor/Data/NetStandard/compat/2.1.0/shims/netstandard/System.Security.SecureString.dll"
-r:"/home/admin/Unity/Hub/Editor/2021.3.18f1/Editor/Data/NetStandard/compat/2.1.0/shims/netstandard/System.Text.Encoding.Extensions.dll"
-r:"/home/admin/Unity/Hub/Editor/2021.3.18f1/Editor/Data/NetStandard/compat/2.1.0/shims/netstandard/System.Text.Encoding.dll"
-r:"/home/admin/Unity/Hub/Editor/2021.3.18f1/Editor/Data/NetStandard/compat/2.1.0/shims/netstandard/System.Text.RegularExpressions.dll"
-r:"/home/admin/Unity/Hub/Editor/2021.3.18f1/Editor/Data/NetStandard/compat/2.1.0/shims/netstandard/System.Threading.Overlapped.dll"
-r:"/home/admin/Unity/Hub/Editor/2021.3.18f1/Editor/Data/NetStandard/compat/2.1.0/shims/netstandard/System.Threading.Tasks.Extensions.dll"
-r:"/home/admin/Unity/Hub/Editor/2021.3.18f1/Editor/Data/NetStandard/compat/2.1.0/shims/netstandard/System.Threading.Tasks.Parallel.dll"
-r:"/home/admin/Unity/Hub/Editor/2021.3.18f1/Editor/Data/NetStandard/compat/2.1.0/shims/netstandard/System.Threading.Tasks.dll"
-r:"/home/admin/Unity/Hub/Editor/2021.3.18f1/Editor/Data/NetStandard/compat/2.1.0/shims/netstandard/System.Threading.Thread.dll"
-r:"/home/admin/Unity/Hub/Editor/2021.3.18f1/Editor/Data/NetStandard/compat/2.1.0/shims/netstandard/System.Threading.ThreadPool.dll"
-r:"/home/admin/Unity/Hub/Editor/2021.3.18f1/Editor/Data/NetStandard/compat/2.1.0/shims/netstandard/System.Threading.Timer.dll"
-r:"/home/admin/Unity/Hub/Editor/2021.3.18f1/Editor/Data/NetStandard/compat/2.1.0/shims/netstandard/System.Threading.dll"
-r:"/home/admin/Unity/Hub/Editor/2021.3.18f1/Editor/Data/NetStandard/compat/2.1.0/shims/netstandard/System.ValueTuple.dll"
-r:"/home/admin/Unity/Hub/Editor/2021.3.18f1/Editor/Data/NetStandard/compat/2.1.0/shims/netstandard/System.Xml.ReaderWriter.dll"
-r:"/home/admin/Unity/Hub/Editor/2021.3.18f1/Editor/Data/NetStandard/compat/2.1.0/shims/netstandard/System.Xml.XDocument.dll"
-r:"/home/admin/Unity/Hub/Editor/2021.3.18f1/Editor/Data/NetStandard/compat/2.1.0/shims/netstandard/System.Xml.XPath.XDocument.dll"
-r:"/home/admin/Unity/Hub/Editor/2021.3.18f1/Editor/Data/NetStandard/compat/2.1.0/shims/netstandard/System.Xml.XPath.dll"
-r:"/home/admin/Unity/Hub/Editor/2021.3.18f1/Editor/Data/NetStandard/compat/2.1.0/shims/netstandard/System.Xml.XmlDocument.dll"
-r:"/home/admin/Unity/Hub/Editor/2021.3.18f1/Editor/Data/NetStandard/compat/2.1.0/shims/netstandard/System.Xml.XmlSerializer.dll"
-r:"/home/admin/Unity/Hub/Editor/2021.3.18f1/Editor/Data/NetStandard/ref/2.1.0/netstandard.dll"
-r:"/home/admin/Unity/Hub/Editor/2021.3.18f1/Editor/Data/PlaybackEngines/AndroidPlayer/Unity.Android.Gradle.dll"
-r:"/home/admin/Unity/Hub/Editor/2021.3.18f1/Editor/Data/PlaybackEngines/AndroidPlayer/Unity.Android.Types.dll"
-r:"Assets/RosSharp/Plugins/Newtonsoft.Json.Bson.dll"
-r:"Assets/RosSharp/Plugins/Newtonsoft.Json.dll"
-r:"Assets/RosSharp/Plugins/RosBridgeClient.dll"
-r:"Assets/RosSharp/Plugins/Urdf.dll"
-r:"Assets/RosSharp/Plugins/websocket-sharp.dll"
-r:"Library/Bee/artifacts/2400b0aE.dag/Unity.Burst.Editor.ref.dll"
-r:"Library/Bee/artifacts/2400b0aE.dag/Unity.Burst.ref.dll"
-r:"Library/Bee/artifacts/2400b0aE.dag/Unity.EditorCoroutines.Editor.ref.dll"
-r:"Library/Bee/artifacts/2400b0aE.dag/Unity.Mathematics.Editor.ref.dll"
-r:"Library/Bee/artifacts/2400b0aE.dag/Unity.Mathematics.ref.dll"
-r:"Library/Bee/artifacts/2400b0aE.dag/Unity.Performance.Profile-Analyzer.Editor.ref.dll"
-r:"Library/Bee/artifacts/2400b0aE.dag/Unity.PlasticSCM.Editor.ref.dll"
-r:"Library/Bee/artifacts/2400b0aE.dag/Unity.Rider.Editor.ref.dll"
-r:"Library/Bee/artifacts/2400b0aE.dag/Unity.Robotics.ROSTCPConnector.Editor.ref.dll"
-r:"Library/Bee/artifacts/2400b0aE.dag/Unity.Robotics.ROSTCPConnector.MessageGeneration.ref.dll"
-r:"Library/Bee/artifacts/2400b0aE.dag/Unity.Robotics.ROSTCPConnector.Messages.ref.dll"
-r:"Library/Bee/artifacts/2400b0aE.dag/Unity.Robotics.ROSTCPConnector.ref.dll"
-r:"Library/Bee/artifacts/2400b0aE.dag/Unity.Robotics.UrdfImporter.Editor.ref.dll"
-r:"Library/Bee/artifacts/2400b0aE.dag/Unity.Robotics.UrdfImporter.ref.dll"
-r:"Library/Bee/artifacts/2400b0aE.dag/Unity.TestTools.CodeCoverage.Editor.OpenCover.Model.ref.dll"
-r:"Library/Bee/artifacts/2400b0aE.dag/Unity.TestTools.CodeCoverage.Editor.OpenCover.Mono.Reflection.ref.dll"
-r:"Library/Bee/artifacts/2400b0aE.dag/Unity.TestTools.CodeCoverage.Editor.ref.dll"
-r:"Library/Bee/artifacts/2400b0aE.dag/Unity.TextMeshPro.Editor.ref.dll"
-r:"Library/Bee/artifacts/2400b0aE.dag/Unity.TextMeshPro.ref.dll"
-r:"Library/Bee/artifacts/2400b0aE.dag/Unity.Timeline.Editor.ref.dll"
-r:"Library/Bee/artifacts/2400b0aE.dag/Unity.Timeline.ref.dll"
-r:"Library/Bee/artifacts/2400b0aE.dag/Unity.VSCode.Editor.ref.dll"
-r:"Library/Bee/artifacts/2400b0aE.dag/Unity.VisualScripting.Core.Editor.ref.dll"
-r:"Library/Bee/artifacts/2400b0aE.dag/Unity.VisualScripting.Core.ref.dll"
-r:"Library/Bee/artifacts/2400b0aE.dag/Unity.VisualScripting.Flow.Editor.ref.dll"
-r:"Library/Bee/artifacts/2400b0aE.dag/Unity.VisualScripting.Flow.ref.dll"
-r:"Library/Bee/artifacts/2400b0aE.dag/Unity.VisualScripting.SettingsProvider.Editor.ref.dll"
-r:"Library/Bee/artifacts/2400b0aE.dag/Unity.VisualScripting.Shared.Editor.ref.dll"
-r:"Library/Bee/artifacts/2400b0aE.dag/Unity.VisualScripting.State.Editor.ref.dll"
-r:"Library/Bee/artifacts/2400b0aE.dag/Unity.VisualScripting.State.ref.dll"
-r:"Library/Bee/artifacts/2400b0aE.dag/Unity.VisualStudio.Editor.ref.dll"
-r:"Library/Bee/artifacts/2400b0aE.dag/UnityEditor.UI.ref.dll"
-r:"Library/Bee/artifacts/2400b0aE.dag/UnityEngine.UI.ref.dll"
-r:"Library/Bee/artifacts/2400b0aE.dag/vhacd.ref.dll"
"Assets/AGVController.cs"
"Assets/Camera/RGBCamera.cs"
"Assets/Camera/RGBCameraPublisher.cs"
"Assets/CollisionPublisher.cs"
"Assets/DiffDrive.cs"
"Assets/Flooded_Grounds/PostProcessing/Runtime/Attributes/GetSetAttribute.cs"
"Assets/Flooded_Grounds/PostProcessing/Runtime/Attributes/MinAttribute.cs"
"Assets/Flooded_Grounds/PostProcessing/Runtime/Attributes/TrackballAttribute.cs"
"Assets/Flooded_Grounds/PostProcessing/Runtime/Attributes/TrackballGroupAttribute.cs"
"Assets/Flooded_Grounds/PostProcessing/Runtime/Components/AmbientOcclusionComponent.cs"
"Assets/Flooded_Grounds/PostProcessing/Runtime/Components/BloomComponent.cs"
"Assets/Flooded_Grounds/PostProcessing/Runtime/Components/BuiltinDebugViewsComponent.cs"
"Assets/Flooded_Grounds/PostProcessing/Runtime/Components/ChromaticAberrationComponent.cs"
"Assets/Flooded_Grounds/PostProcessing/Runtime/Components/ColorGradingComponent.cs"
"Assets/Flooded_Grounds/PostProcessing/Runtime/Components/DepthOfFieldComponent.cs"
"Assets/Flooded_Grounds/PostProcessing/Runtime/Components/DitheringComponent.cs"
"Assets/Flooded_Grounds/PostProcessing/Runtime/Components/EyeAdaptationComponent.cs"
"Assets/Flooded_Grounds/PostProcessing/Runtime/Components/FogComponent.cs"
"Assets/Flooded_Grounds/PostProcessing/Runtime/Components/FxaaComponent.cs"
"Assets/Flooded_Grounds/PostProcessing/Runtime/Components/GrainComponent.cs"
"Assets/Flooded_Grounds/PostProcessing/Runtime/Components/MotionBlurComponent.cs"
"Assets/Flooded_Grounds/PostProcessing/Runtime/Components/ScreenSpaceReflectionComponent.cs"
"Assets/Flooded_Grounds/PostProcessing/Runtime/Components/TaaComponent.cs"
"Assets/Flooded_Grounds/PostProcessing/Runtime/Components/UserLutComponent.cs"
"Assets/Flooded_Grounds/PostProcessing/Runtime/Components/VignetteComponent.cs"
"Assets/Flooded_Grounds/PostProcessing/Runtime/Models/AmbientOcclusionModel.cs"
"Assets/Flooded_Grounds/PostProcessing/Runtime/Models/AntialiasingModel.cs"
"Assets/Flooded_Grounds/PostProcessing/Runtime/Models/BloomModel.cs"
"Assets/Flooded_Grounds/PostProcessing/Runtime/Models/BuiltinDebugViewsModel.cs"
"Assets/Flooded_Grounds/PostProcessing/Runtime/Models/ChromaticAberrationModel.cs"
"Assets/Flooded_Grounds/PostProcessing/Runtime/Models/ColorGradingModel.cs"
"Assets/Flooded_Grounds/PostProcessing/Runtime/Models/DepthOfFieldModel.cs"
"Assets/Flooded_Grounds/PostProcessing/Runtime/Models/DitheringModel.cs"
"Assets/Flooded_Grounds/PostProcessing/Runtime/Models/EyeAdaptationModel.cs"
"Assets/Flooded_Grounds/PostProcessing/Runtime/Models/FogModel.cs"
"Assets/Flooded_Grounds/PostProcessing/Runtime/Models/GrainModel.cs"
"Assets/Flooded_Grounds/PostProcessing/Runtime/Models/MotionBlurModel.cs"
"Assets/Flooded_Grounds/PostProcessing/Runtime/Models/ScreenSpaceReflectionModel.cs"
"Assets/Flooded_Grounds/PostProcessing/Runtime/Models/UserLutModel.cs"
"Assets/Flooded_Grounds/PostProcessing/Runtime/Models/VignetteModel.cs"
"Assets/Flooded_Grounds/PostProcessing/Runtime/PostProcessingBehaviour.cs"
"Assets/Flooded_Grounds/PostProcessing/Runtime/PostProcessingComponent.cs"
"Assets/Flooded_Grounds/PostProcessing/Runtime/PostProcessingContext.cs"
"Assets/Flooded_Grounds/PostProcessing/Runtime/PostProcessingModel.cs"
"Assets/Flooded_Grounds/PostProcessing/Runtime/PostProcessingProfile.cs"
"Assets/Flooded_Grounds/PostProcessing/Runtime/Utils/ColorGradingCurve.cs"
"Assets/Flooded_Grounds/PostProcessing/Runtime/Utils/GraphicsUtils.cs"
"Assets/Flooded_Grounds/PostProcessing/Runtime/Utils/MaterialFactory.cs"
"Assets/Flooded_Grounds/PostProcessing/Runtime/Utils/RenderTextureFactory.cs"
"Assets/Flooded_Grounds/PostProcessing/Utilities/CustomMotionTexture/ExampleWheelController.cs"
"Assets/Flooded_Grounds/Scripts/DisableRenderer.cs"
"Assets/Flooded_Grounds/Scripts/FPSController/CharController_Motor.cs"
"Assets/Flooded_Grounds/Scripts/FPSDisplay.cs"
"Assets/Flooded_Grounds/Scripts/WaterFloat.cs"
"Assets/GoalPose.cs"
"Assets/HuskyController_.cs"
"Assets/HuskyPosePublisher.cs"
"Assets/LiDAR-FRJ/RotateLidar.cs"
"Assets/LiDAR-FRJ/VLP16Publisher.cs"
"Assets/LiDAR-FRJ/VLP16Serializer.cs"
"Assets/LiDAR-FRJ/msg/VelodynePacketMsg.cs"
"Assets/LiDAR-FRJ/msg/VelodyneScanMsg.cs"
"Assets/LiDAR/Clock.cs"
"Assets/LiDAR/LaserScanSensor.cs"
"Assets/LiDAR/ROSTransformTreePublisher.cs"
"Assets/LiDAR/TimeStamp.cs"
"Assets/LiDAR/TransformExtensions.cs"
"Assets/LiDAR/TransformTreeNode.cs"
"Assets/RosSharp/Scripts/Extensions/StandardHeaderExtensions.cs"
"Assets/RosSharp/Scripts/Extensions/TransformExtensions.cs"
"Assets/RosSharp/Scripts/RosBridgeClient/MessageGeneration/ActionMessageGenerator.cs"
"Assets/RosSharp/Scripts/RosBridgeClient/MessageGeneration/MessageGenerationGenerics.cs"
"Assets/RosSharp/Scripts/RosBridgeClient/MessageGeneration/ServiceMessageGenerator.cs"
"Assets/RosSharp/Scripts/RosBridgeClient/MessageGeneration/SimpleMessageGenerator.cs"
"Assets/RosSharp/Scripts/RosBridgeClient/MessageHandling/JointStatePatcher.cs"
"Assets/RosSharp/Scripts/RosBridgeClient/MessageHandling/JointStateReader.cs"
"Assets/RosSharp/Scripts/RosBridgeClient/MessageHandling/JointStateWriter.cs"
"Assets/RosSharp/Scripts/RosBridgeClient/MessageHandling/JoyAxisInputPasser.cs"
"Assets/RosSharp/Scripts/RosBridgeClient/MessageHandling/JoyAxisJointMotorWriter.cs"
"Assets/RosSharp/Scripts/RosBridgeClient/MessageHandling/JoyAxisJointTransformWriter.cs"
"Assets/RosSharp/Scripts/RosBridgeClient/MessageHandling/JoyAxisReader.cs"
"Assets/RosSharp/Scripts/RosBridgeClient/MessageHandling/JoyAxisWriter.cs"
"Assets/RosSharp/Scripts/RosBridgeClient/MessageHandling/JoyButtonReader.cs"
"Assets/RosSharp/Scripts/RosBridgeClient/MessageHandling/JoyButtonWriter.cs"
"Assets/RosSharp/Scripts/RosBridgeClient/MessageHandling/LaserScanReader.cs"
"Assets/RosSharp/Scripts/RosBridgeClient/MessageHandling/LaserScanWriter.cs"
"Assets/RosSharp/Scripts/RosBridgeClient/RosCommuncation/ActionClient.cs"
"Assets/RosSharp/Scripts/RosBridgeClient/RosCommuncation/ActionServer.cs"
"Assets/RosSharp/Scripts/RosBridgeClient/RosCommuncation/FibonacciActionClient.cs"
"Assets/RosSharp/Scripts/RosBridgeClient/RosCommuncation/FibonacciActionServer.cs"
"Assets/RosSharp/Scripts/RosBridgeClient/RosCommuncation/GetParamServiceProvider.cs"
"Assets/RosSharp/Scripts/RosBridgeClient/RosCommuncation/ImagePublisher.cs"
"Assets/RosSharp/Scripts/RosBridgeClient/RosCommuncation/ImageSubscriber.cs"
"Assets/RosSharp/Scripts/RosBridgeClient/RosCommuncation/JointStatePublisher.cs"
"Assets/RosSharp/Scripts/RosBridgeClient/RosCommuncation/JointStateSubscriber.cs"
"Assets/RosSharp/Scripts/RosBridgeClient/RosCommuncation/JoyPublisher.cs"
"Assets/RosSharp/Scripts/RosBridgeClient/RosCommuncation/JoySubscriber.cs"
"Assets/RosSharp/Scripts/RosBridgeClient/RosCommuncation/LaserScanPublisher.cs"
"Assets/RosSharp/Scripts/RosBridgeClient/RosCommuncation/LaserScanSubscriber.cs"
"Assets/RosSharp/Scripts/RosBridgeClient/RosCommuncation/OdometrySubscriber.cs"
"Assets/RosSharp/Scripts/RosBridgeClient/RosCommuncation/PoseStampedPublisher.cs"
"Assets/RosSharp/Scripts/RosBridgeClient/RosCommuncation/PoseStampedSubscriber.cs"
"Assets/RosSharp/Scripts/RosBridgeClient/RosCommuncation/Publisher.cs"
"Assets/RosSharp/Scripts/RosBridgeClient/RosCommuncation/RosConnector.cs"
"Assets/RosSharp/Scripts/RosBridgeClient/RosCommuncation/ServiceProvider.cs"
"Assets/RosSharp/Scripts/RosBridgeClient/RosCommuncation/Subscriber.cs"
"Assets/RosSharp/Scripts/RosBridgeClient/RosCommuncation/TwistPublisher.cs"
"Assets/RosSharp/Scripts/RosBridgeClient/RosCommuncation/TwistSubscriber.cs"
"Assets/RosSharp/Scripts/RosBridgeClient/SensorDataVisualization/LaserScanVisualizer.cs"
"Assets/RosSharp/Scripts/RosBridgeClient/SensorDataVisualization/LaserScanVisualizerLines.cs"
"Assets/RosSharp/Scripts/RosBridgeClient/SensorDataVisualization/LaserScanVisualizerMesh.cs"
"Assets/RosSharp/Scripts/RosBridgeClient/SensorDataVisualization/LaserScanVisualizerSpheres.cs"
"Assets/RosSharp/Scripts/RosBridgeClient/Timing/SystemTimer.cs"
"Assets/RosSharp/Scripts/RosBridgeClient/Timing/Timer.cs"
"Assets/RosSharp/Scripts/Urdf/JointLimitsManagers/HingeJointLimitsManager.cs"
"Assets/RosSharp/Scripts/Urdf/JointLimitsManagers/PrismaticJointLimitsManager.cs"
"Assets/RosSharp/Scripts/Urdf/Math/Matrix3x3.cs"
"Assets/RosSharp/Scripts/Urdf/UrdfComponents/UrdfCollision.cs"
"Assets/RosSharp/Scripts/Urdf/UrdfComponents/UrdfCollisions.cs"
"Assets/RosSharp/Scripts/Urdf/UrdfComponents/UrdfInertial.cs"
"Assets/RosSharp/Scripts/Urdf/UrdfComponents/UrdfJoints/UrdfJoint.cs"
"Assets/RosSharp/Scripts/Urdf/UrdfComponents/UrdfJoints/UrdfJointContinuous.cs"
"Assets/RosSharp/Scripts/Urdf/UrdfComponents/UrdfJoints/UrdfJointFixed.cs"
"Assets/RosSharp/Scripts/Urdf/UrdfComponents/UrdfJoints/UrdfJointFloating.cs"
"Assets/RosSharp/Scripts/Urdf/UrdfComponents/UrdfJoints/UrdfJointPlanar.cs"
"Assets/RosSharp/Scripts/Urdf/UrdfComponents/UrdfJoints/UrdfJointPrismatic.cs"
"Assets/RosSharp/Scripts/Urdf/UrdfComponents/UrdfJoints/UrdfJointRevolute.cs"
"Assets/RosSharp/Scripts/Urdf/UrdfComponents/UrdfLink.cs"
"Assets/RosSharp/Scripts/Urdf/UrdfComponents/UrdfOrigin.cs"
"Assets/RosSharp/Scripts/Urdf/UrdfComponents/UrdfPlugin.cs"
"Assets/RosSharp/Scripts/Urdf/UrdfComponents/UrdfPlugins.cs"
"Assets/RosSharp/Scripts/Urdf/UrdfComponents/UrdfRobot.cs"
"Assets/RosSharp/Scripts/Urdf/UrdfComponents/UrdfVisual.cs"
"Assets/RosSharp/Scripts/Urdf/UrdfComponents/UrdfVisuals.cs"
"Assets/RosUnityTransforms.cs"
"Assets/SpawnGoal.cs"
"Assets/Spawn_Warty.cs"
"Assets/WarthhogController_.cs"
-langversion:9.0

/deterministic
/optimize+
/debug:portable
/nologo
/RuntimeMetadataVersion:v4.0.30319

/nowarn:0169
/nowarn:0649
/nowarn:1701
/nowarn:1702
/utf8output
/preferreduilang:en-US


/additionalfile:"Library/Bee/artifacts/2400b0aE.dag/Assembly-CSharp.AdditionalFile.txt"