Library/Bee/artifacts/mvdfrm/Unity.Burst.ref.dll_9CE15340CD9598D2.mvfrm
Library/Bee/artifacts/mvdfrm/Unity.Burst.Cecil.Pdb.dll_4B7460D6BBE077E2.mvfrm
Library/Bee/artifacts/mvdfrm/Unity.Burst.Cecil.Rocks.dll_97DCD27BECC9A842.mvfrm
Library/Bee/artifacts/mvdfrm/Unity.Burst.Cecil.dll_8B99D101F0EF9AA2.mvfrm
Library/Bee/artifacts/mvdfrm/Unity.CompilationPipeline.Common.dll_CCB3AA9EC9AFCFE4.mvfrm
Library/Bee/artifacts/mvdfrm/UnityEditor.Graphs.dll_608CBFD5580F4A28.mvfrm
Library/Bee/artifacts/mvdfrm/UnityEditor.CoreModule.dll_47F4FB58A18635F6.mvfrm
Library/Bee/artifacts/mvdfrm/UnityEditor.DeviceSimulatorModule.dll_F961B16EC97873AB.mvfrm
Library/Bee/artifacts/mvdfrm/UnityEditor.DiagnosticsModule.dll_C938B299E14F4339.mvfrm
Library/Bee/artifacts/mvdfrm/UnityEditor.GraphViewModule.dll_6CA958AF1056B9F0.mvfrm
Library/Bee/artifacts/mvdfrm/UnityEditor.PackageManagerUIModule.dll_1C69776C9D2DEBD2.mvfrm
Library/Bee/artifacts/mvdfrm/UnityEditor.QuickSearchModule.dll_544833A73A263F92.mvfrm
Library/Bee/artifacts/mvdfrm/UnityEditor.SceneTemplateModule.dll_9449103F9A2D0453.mvfrm
Library/Bee/artifacts/mvdfrm/UnityEditor.TextCoreFontEngineModule.dll_86A19C9EE8BD1AB4.mvfrm
Library/Bee/artifacts/mvdfrm/UnityEditor.TextCoreTextEngineModule.dll_CE89D3107840D3D2.mvfrm
Library/Bee/artifacts/mvdfrm/UnityEditor.UIBuilderModule.dll_C13205CB830F3324.mvfrm
Library/Bee/artifacts/mvdfrm/UnityEditor.UIElementsModule.dll_0AA1ECD5969DFD72.mvfrm
Library/Bee/artifacts/mvdfrm/UnityEditor.UIElementsSamplesModule.dll_CB08409DEAE5811B.mvfrm
Library/Bee/artifacts/mvdfrm/UnityEditor.UIServiceModule.dll_FA24172E6C46833E.mvfrm
Library/Bee/artifacts/mvdfrm/UnityEditor.UnityConnectModule.dll_BAA85DDE76DFDFAC.mvfrm
Library/Bee/artifacts/mvdfrm/UnityEditor.dll_E851FB54A6C651BF.mvfrm
Library/Bee/artifacts/mvdfrm/UnityEngine.AIModule.dll_279269F1FB67E18A.mvfrm
Library/Bee/artifacts/mvdfrm/UnityEngine.ARModule.dll_E1052EF558854053.mvfrm
Library/Bee/artifacts/mvdfrm/UnityEngine.AccessibilityModule.dll_C6EE7BD69AA32BF0.mvfrm
Library/Bee/artifacts/mvdfrm/UnityEngine.AndroidJNIModule.dll_88EAD5A8DFBD6C48.mvfrm
Library/Bee/artifacts/mvdfrm/UnityEngine.AnimationModule.dll_3B2ED4D7EAB38E96.mvfrm
Library/Bee/artifacts/mvdfrm/UnityEngine.AssetBundleModule.dll_983166989C8CF484.mvfrm
Library/Bee/artifacts/mvdfrm/UnityEngine.AudioModule.dll_EB46F4921F1E5A08.mvfrm
Library/Bee/artifacts/mvdfrm/UnityEngine.ClothModule.dll_522F518CF93B38EC.mvfrm
Library/Bee/artifacts/mvdfrm/UnityEngine.ClusterInputModule.dll_3A44D2F42867B272.mvfrm
Library/Bee/artifacts/mvdfrm/UnityEngine.ClusterRendererModule.dll_FF0E73E03933812F.mvfrm
Library/Bee/artifacts/mvdfrm/UnityEngine.CoreModule.dll_6B15CEAB498BA121.mvfrm
Library/Bee/artifacts/mvdfrm/UnityEngine.CrashReportingModule.dll_1A0703B54B03B359.mvfrm
Library/Bee/artifacts/mvdfrm/UnityEngine.DSPGraphModule.dll_BFD2FE893063809F.mvfrm
Library/Bee/artifacts/mvdfrm/UnityEngine.DirectorModule.dll_BA819D1FBE02AF7E.mvfrm
Library/Bee/artifacts/mvdfrm/UnityEngine.GIModule.dll_BFCEB2FF9716C9A4.mvfrm
Library/Bee/artifacts/mvdfrm/UnityEngine.GameCenterModule.dll_B3381FC3A5FE5D39.mvfrm
Library/Bee/artifacts/mvdfrm/UnityEngine.GridModule.dll_4886EA9961E03718.mvfrm
Library/Bee/artifacts/mvdfrm/UnityEngine.HotReloadModule.dll_BC7792DDC5E6AA18.mvfrm
Library/Bee/artifacts/mvdfrm/UnityEngine.IMGUIModule.dll_23A693F8E54FEDE9.mvfrm
Library/Bee/artifacts/mvdfrm/UnityEngine.ImageConversionModule.dll_6B007190BB583923.mvfrm
Library/Bee/artifacts/mvdfrm/UnityEngine.InputLegacyModule.dll_297681B7347EAA75.mvfrm
Library/Bee/artifacts/mvdfrm/UnityEngine.InputModule.dll_51BCBC4295567EAC.mvfrm
Library/Bee/artifacts/mvdfrm/UnityEngine.JSONSerializeModule.dll_2706051299DE8C7A.mvfrm
Library/Bee/artifacts/mvdfrm/UnityEngine.LocalizationModule.dll_78919D46BFE3A56B.mvfrm
Library/Bee/artifacts/mvdfrm/UnityEngine.NVIDIAModule.dll_986A10A44531B3AD.mvfrm
Library/Bee/artifacts/mvdfrm/UnityEngine.ParticleSystemModule.dll_6D194D01B9153EE7.mvfrm
Library/Bee/artifacts/mvdfrm/UnityEngine.PerformanceReportingModule.dll_C83C7B357FDA96E0.mvfrm
Library/Bee/artifacts/mvdfrm/UnityEngine.Physics2DModule.dll_87D4C4C88BB0862B.mvfrm
Library/Bee/artifacts/mvdfrm/UnityEngine.PhysicsModule.dll_D9B0E10AC12115D9.mvfrm
Library/Bee/artifacts/mvdfrm/UnityEngine.ProfilerModule.dll_ECC7D656575C368B.mvfrm
Library/Bee/artifacts/mvdfrm/UnityEngine.RuntimeInitializeOnLoadManagerInitializerModule.dll_959327005406CCF4.mvfrm
Library/Bee/artifacts/mvdfrm/UnityEngine.ScreenCaptureModule.dll_40EDB297AE4AB8DC.mvfrm
Library/Bee/artifacts/mvdfrm/UnityEngine.SharedInternalsModule.dll_EF11B06632863473.mvfrm
Library/Bee/artifacts/mvdfrm/UnityEngine.SpriteMaskModule.dll_9C649253C76DF2B3.mvfrm
Library/Bee/artifacts/mvdfrm/UnityEngine.SpriteShapeModule.dll_B19293F3522F2C8E.mvfrm
Library/Bee/artifacts/mvdfrm/UnityEngine.StreamingModule.dll_EFC3C2283A3B45D4.mvfrm
Library/Bee/artifacts/mvdfrm/UnityEngine.SubstanceModule.dll_CC6ED671858E43E2.mvfrm
Library/Bee/artifacts/mvdfrm/UnityEngine.SubsystemsModule.dll_0711F8B595B5DAC6.mvfrm
Library/Bee/artifacts/mvdfrm/UnityEngine.TLSModule.dll_BAFF9E939700C86D.mvfrm
Library/Bee/artifacts/mvdfrm/UnityEngine.TerrainModule.dll_F3F75C7996DF5EC7.mvfrm
Library/Bee/artifacts/mvdfrm/UnityEngine.TerrainPhysicsModule.dll_6D93F5D4D2583974.mvfrm
Library/Bee/artifacts/mvdfrm/UnityEngine.TextCoreFontEngineModule.dll_050117F1FBBAD97F.mvfrm
Library/Bee/artifacts/mvdfrm/UnityEngine.TextCoreTextEngineModule.dll_4CE94E638B3E929D.mvfrm
Library/Bee/artifacts/mvdfrm/UnityEngine.TextRenderingModule.dll_6A2D24A2658238D1.mvfrm
Library/Bee/artifacts/mvdfrm/UnityEngine.TilemapModule.dll_92F3C3FAAE9C3FD0.mvfrm
Library/Bee/artifacts/mvdfrm/UnityEngine.UIElementsModule.dll_0B505A1D98E216BD.mvfrm
Library/Bee/artifacts/mvdfrm/UnityEngine.UIElementsNativeModule.dll_66E32C020EA65BF4.mvfrm
Library/Bee/artifacts/mvdfrm/UnityEngine.UIModule.dll_2306081F57AEE736.mvfrm
Library/Bee/artifacts/mvdfrm/UnityEngine.UNETModule.dll_FDBC1694969A969A.mvfrm
Library/Bee/artifacts/mvdfrm/UnityEngine.UmbraModule.dll_661BA0AAAC45057B.mvfrm
Library/Bee/artifacts/mvdfrm/UnityEngine.UnityAnalyticsCommonModule.dll_637B387999C3353E.mvfrm
Library/Bee/artifacts/mvdfrm/UnityEngine.UnityAnalyticsModule.dll_8CB8BDCB653C90E3.mvfrm
Library/Bee/artifacts/mvdfrm/UnityEngine.UnityConnectModule.dll_A807E1ED7167E057.mvfrm
Library/Bee/artifacts/mvdfrm/UnityEngine.UnityCurlModule.dll_6E4B76095AC78083.mvfrm
Library/Bee/artifacts/mvdfrm/UnityEngine.UnityTestProtocolModule.dll_86CAF69044E0D671.mvfrm
Library/Bee/artifacts/mvdfrm/UnityEngine.UnityWebRequestAssetBundleModule.dll_BE8EC8C2FF2225F4.mvfrm
Library/Bee/artifacts/mvdfrm/UnityEngine.UnityWebRequestAudioModule.dll_4038CF1406456178.mvfrm
Library/Bee/artifacts/mvdfrm/UnityEngine.UnityWebRequestModule.dll_7C9F793AC64CD3A2.mvfrm
Library/Bee/artifacts/mvdfrm/UnityEngine.UnityWebRequestTextureModule.dll_4C732D237CBF564D.mvfrm
Library/Bee/artifacts/mvdfrm/UnityEngine.UnityWebRequestWWWModule.dll_17AB93BF7AFE4F09.mvfrm
Library/Bee/artifacts/mvdfrm/UnityEngine.VFXModule.dll_3BDE37026D6E31DA.mvfrm
Library/Bee/artifacts/mvdfrm/UnityEngine.VRModule.dll_75D82EA4F9696CAE.mvfrm
Library/Bee/artifacts/mvdfrm/UnityEngine.VehiclesModule.dll_3244969F382C7F19.mvfrm
Library/Bee/artifacts/mvdfrm/UnityEngine.VideoModule.dll_105078FCE1B075AD.mvfrm
Library/Bee/artifacts/mvdfrm/UnityEngine.VirtualTexturingModule.dll_8B6FE070E754DC7F.mvfrm
Library/Bee/artifacts/mvdfrm/UnityEngine.WindModule.dll_E164A9D3DAC21F8A.mvfrm
Library/Bee/artifacts/mvdfrm/UnityEngine.XRModule.dll_A896F1A982A3BA0C.mvfrm
Library/Bee/artifacts/mvdfrm/UnityEngine.dll_1AF6422D0539DEA4.mvfrm
Library/Bee/artifacts/mvdfrm/Unity.Android.Gradle.dll_50059BB67FCB7ADE.mvfrm
Library/Bee/artifacts/mvdfrm/Unity.Android.Types.dll_C2EC3F148C62583E.mvfrm
Library/Bee/artifacts/mvdfrm/UnityEditor.Android.Extensions.dll_76E71FB3786B9DDE.mvfrm
Library/Bee/artifacts/mvdfrm/UnityEditor.LinuxStandalone.Extensions.dll_62BC4E0977D6D7BA.mvfrm
Library/Bee/artifacts/mvdfrm/UnityEditor.WebGL.Extensions.dll_A29EE239AEC18F1A.mvfrm