%YAML 1.1
%TAG !u! tag:unity3d.com,2011:
--- !u!181963792 &2655988077585873504
Preset:
  m_ObjectHideFlags: 0
  m_CorrespondingSourceObject: {fileID: 0}
  m_PrefabInstance: {fileID: 0}
  m_PrefabAsset: {fileID: 0}
  m_Name: DefaultWarthogWheelCollider
  m_TargetType:
    m_NativeTypeID: 146
    m_ManagedTypePPtr: {fileID: 0}
    m_ManagedTypeFallback: 
  m_Properties:
  - target: {fileID: 0}
    propertyPath: m_Center.x
    value: 0
    objectReference: {fileID: 0}
  - target: {fileID: 0}
    propertyPath: m_Center.y
    value: 0
    objectReference: {fileID: 0}
  - target: {fileID: 0}
    propertyPath: m_Center.z
    value: 0
    objectReference: {fileID: 0}
  - target: {fileID: 0}
    propertyPath: m_Radius
    value: 0.3
    objectReference: {fileID: 0}
  - target: {fileID: 0}
    propertyPath: m_SuspensionSpring.spring
    value: 350
    objectReference: {fileID: 0}
  - target: {fileID: 0}
    propertyPath: m_SuspensionSpring.damper
    value: 45
    objectReference: {fileID: 0}
  - target: {fileID: 0}
    propertyPath: m_SuspensionSpring.targetPosition
    value: 0.5
    objectReference: {fileID: 0}
  - target: {fileID: 0}
    propertyPath: m_SuspensionDistance
    value: 0.01
    objectReference: {fileID: 0}
  - target: {fileID: 0}
    propertyPath: m_ForceAppPointDistance
    value: 0
    objectReference: {fileID: 0}
  - target: {fileID: 0}
    propertyPath: m_Mass
    value: 20
    objectReference: {fileID: 0}
  - target: {fileID: 0}
    propertyPath: m_WheelDampingRate
    value: 3
    objectReference: {fileID: 0}
  - target: {fileID: 0}
    propertyPath: m_ForwardFriction.m_ExtremumSlip
    value: 0.2
    objectReference: {fileID: 0}
  - target: {fileID: 0}
    propertyPath: m_ForwardFriction.m_ExtremumValue
    value: 3
    objectReference: {fileID: 0}
  - target: {fileID: 0}
    propertyPath: m_ForwardFriction.m_AsymptoteSlip
    value: 1
    objectReference: {fileID: 0}
  - target: {fileID: 0}
    propertyPath: m_ForwardFriction.m_AsymptoteValue
    value: 2
    objectReference: {fileID: 0}
  - target: {fileID: 0}
    propertyPath: m_ForwardFriction.m_Stiffness
    value: 1
    objectReference: {fileID: 0}
  - target: {fileID: 0}
    propertyPath: m_SidewaysFriction.m_ExtremumSlip
    value: 0.2
    objectReference: {fileID: 0}
  - target: {fileID: 0}
    propertyPath: m_SidewaysFriction.m_ExtremumValue
    value: 2
    objectReference: {fileID: 0}
  - target: {fileID: 0}
    propertyPath: m_SidewaysFriction.m_AsymptoteSlip
    value: 1
    objectReference: {fileID: 0}
  - target: {fileID: 0}
    propertyPath: m_SidewaysFriction.m_AsymptoteValue
    value: 1
    objectReference: {fileID: 0}
  - target: {fileID: 0}
    propertyPath: m_SidewaysFriction.m_Stiffness
    value: 1
    objectReference: {fileID: 0}
  - target: {fileID: 0}
    propertyPath: m_Enabled
    value: 1
    objectReference: {fileID: 0}
